gene	symbol	descr	pollen	seedling	logFC
AT3G17120	AT3G17120	unknown	6.96	15.01	-1.11
AT2G19480	NFA2|NFA02|NAP1;2	nucleosome assembly protein 1;2	67.3	80.58	-0.26
AT3G58510	AT3G58510	DEA(D/H)-box RNA helicase family protein	33.41	26.45	0.34
AT3G06330	AT3G06330	RING/U-box superfamily protein	5.29	14.21	-1.43
AT5G52040	ATRSP41	RNA-binding (RRM/RBD/RNP motifs) family protein	4.15	54.6	-3.72
AT4G36690	ATU2AF65A	U2 snRNP auxilliary factor, large subunit, splicing factor	45.56	67.44	-0.57
AT1G67480	AT1G67480	Galactose oxidase/kelch repeat superfamily protein	512.55	42.5	3.59
AT4G21720	AT4G21720	unknown	5.96	5.72	0.06
AT5G65685	AT5G65685	UDP-Glycosyltransferase superfamily protein	12.73	13.19	-0.05
AT1G09140	ATSRP30.2|ATSRP30|ATSRP30.1	SERINE-ARGININE PROTEIN 30	9.6	56.65	-2.56
